…
``` r
x <- x[, sample(-3:-13, 1)]
y <- y[, sample(-3:-13, 2)]
y_ints <- sapply(y, is.integer)
y_ints[1:2] <- rep(FALSE, 2)
if (any(y_ints)) {
  y[[which(y_ints)[1]]] <- as.character(y[[which(y_ints)[1]]])
}

tibble:::print.tbl_df(x)
```

    # # A tibble: 100,000 x 11
    #    id_01  id_02 colname_02 colname_03 colname_04 colname_05 colname_06
    #    <chr>  <int>      <dbl> <chr>           <dbl>      <dbl>      <dbl>
    #  1 dxzmyu 10552     1.28   ogryow           7.43    1.40          4.09
    #  2 ljmmkk 25389    29.9    duofff           1.85    8.62          1.21
    #  3 nxynzh   350     0.0319 bsorop           5.29    3.89          8.87
    #  4 hjwgru 20007    51.1    qjttrm           2.70    5.91          7.32
    #  5 dwjylf 23880    45.6    gaxolm           3.60    2.58          1.60
    #  6 virqcb 82213    10.8    rxeiwi           7.77    6.79          5.52
    #  7 wvfrrq 98167    18.3    xmzjmx           9.43    0.531         1.50
    #  8 utusok 91929    68.6    xlkmpl           7.21    0.00598       4.50
    #  9 ioxaky 36852    47.5    neemki           8.23    2.97          6.92
    # 10 xvarcb 12323    12.6    uktamw           2.97    9.49          9.05
    # # ... with 99,990 more rows, and 4 more variables: colname_07 <chr>,
    # #   colname_08 <chr>, colname_09 <chr>, colname_10 <int>

``` r
tibble:::print.tbl_df(y)
```

    # # A tibble: 100,000 x 10
    #    id_01  id_02 colname_01 colname_02 colname_03 colname_05 colname_06
    #    <chr>  <int>      <dbl>      <dbl> <chr>           <dbl>      <dbl>
    #  1 dxzmyu 10552      1547.     1.28   ogryow        1.40          4.09
    #  2 ljmmkk 25389       595.    29.9    duofff        8.62          1.21
    #  3 nxynzh   350      8262.     0.0319 bsorop        3.89          8.87
    #  4 hjwgru 20007      6219.    51.1    qjttrm        5.91          7.32
    #  5 dwjylf 23880      1239.    45.6    gaxolm        2.58          1.60
    #  6 virqcb 82213      3485.    10.8    rxeiwi        6.79          5.52
    #  7 wvfrrq 98167      4530.    18.3    xmzjmx        0.531         1.50
    #  8 utusok 91929      9858.    68.6    xlkmpl        0.00598       4.50
    #  9 ioxaky 36852      2552.    47.5    neemki        2.97          6.92
    # 10 xvarcb 12323      9024.    12.6    uktamw        9.49          9.05
    # # ... with 99,990 more rows, and 3 more variables: colname_07 <chr>,
    # #   colname_08 <chr>, colname_10 <chr>
…
``` r
> z2$tidy[1]
```

    $colname_02
    # A tibble: 1,278 x 8
       variable   value.x value.y miss_index miss_index.x miss_index.y id_01 
       <chr>        <dbl>   <dbl>      <int>        <int>        <int> <chr> 
     1 colname_02    44.0      NA         78           78           NA kupdia
     2 colname_02    94.0      NA        257          257           NA ilxydm
     3 colname_02    56.8      NA        282          282           NA lyfrtd
     4 colname_02    88.7      NA        315          315           NA mgfrzq
     5 colname_02    18.2      NA        408          408           NA otecqt
     6 colname_02    43.8      NA        414          414           NA unjmxs
     7 colname_02    67.4      NA        485          485           NA isrgll
     8 colname_02    90.7      NA        721          721           NA fnomgk
     9 colname_02    90.0      NA        886          886           NA zitvfu
    10 colname_02    76.0      NA        952          952           NA fbxwxe
    # ... with 1,268 more rows, and 1 more variable: id_02 <int>
