…
And scramble the order but add grouping to both … this doesn’t work yet.
It starts to get a whole lot more complicated when the number of rows
differ.

``` r
# x <- group_by(x, id_01, id_02) %>% {.[sample(1:nrow(.), nrow(.)), ]}
# y <- group_by(y, id_01, id_02) %>% {.[sample(1:nrow(.), ceiling(nrow(.) * 0.95)), ]}

tibble:::print.tbl_df(x)
```

    # # A tibble: 1,000,000 x 11
    #    id_01   id_02 colname_01 colname_03 colname_04 colname_05 colname_06
    #    <chr>   <int> <chr>           <int>      <int>      <int> <fct>     
    #  1 keklii 271982 pytodq             23         28         -2 h         
    #  2 ccnklh 617614 bjdvvi              7        -20        -41 b         
    #  3 kpehmu 571297 lmygeg             35        -29         -2 d         
    #  4 tugwke 980241 rfimiz            -26        -10        -37 d         
    #  5 kvbzlt 807817 almjtn            -39         15         17 f         
    #  6 hafeln 475980 mchiko            -15         40        -46 g         
    #  7 fxtxue 717063 psmdor             28         13         38 a         
    #  8 ikbnlz 820462 xbmkju              9        -20          3 f         
    #  9 equhbs 166083 amotdn             37          2         12 c         
    # 10 qxqpaa 546228 jxbxjm              8         -6        -11 b         
    # # ... with 999,990 more rows, and 4 more variables: colname_07 <chr>,
    # #   colname_08 <fct>, colname_09 <int>, colname_10 <fct>

``` r
tibble:::print.tbl_df(y)
```

    # # A tibble: 1,000,000 x 10
    #    id_01   id_02 colname_01 colname_02 colname_03 colname_04 colname_06
    #    <chr>   <int> <chr>      <chr>           <int>      <int> <fct>     
    #  1 keklii 271982 pytodq     36                 23         28 h         
    #  2 ccnklh 617614 bjdvvi     -3                  7        -20 b         
    #  3 kpehmu 571297 lmygeg     -6                 35        -29 d         
    #  4 tugwke 980241 rfimiz     -35               -26        -10 d         
    #  5 kvbzlt 807817 almjtn     -43               -39         15 f         
    #  6 hafeln 475980 mchiko     49                -15         40 g         
    #  7 fxtxue 717063 psmdor     -35                28         13 a         
    #  8 ikbnlz 820462 xbmkju     36                  9        -20 f         
    #  9 equhbs 166083 amotdn     49                 37          2 c         
    # 10 qxqpaa 546228 jxbxjm     -32                 8         -6 b         
    # # ... with 999,990 more rows, and 3 more variables: colname_07 <chr>,
    # #   colname_08 <fct>, colname_09 <int>
…
